<svg xmlns:xlink="http://www.w3.org/1999/xlink" xmlns="http://www.w3.org/2000/svg" width="48" height="48"
     viewBox="0 0 48 48">
    <defs>
        <path id="a"
              d="M4.435 11.59H8.13v5.024c0 .145.078.278.202.343a.355.355 0 0 0 .385-.031l.802-.608.802.608c.13.098.305.098.434 0l.8-.608.797.608c.13.098.305.099.434 0l.8-.608.797.608c.13.099.306.098.435 0l.797-.607.797.608a.363.363 0 0 0 .386.031.39.39 0 0 0 .202-.344V5.795C17 2.6 14.514 0 11.457 0H4.435C1.948 0 0 2.545 0 5.795s1.948 5.796 4.435 5.796zm2.236-.772c.587-.44 1.086-1.046 1.46-1.779v1.78H6.67zM11.457.773c2.649 0 4.804 2.253 4.804 5.022v3.478h-.37a.378.378 0 0 0-.37.386c0 .213.166.386.37.386h.37v5.81l-.429-.326a.358.358 0 0 0-.435 0l-.796.606-.798-.607a.356.356 0 0 0-.434 0l-.8.607-.797-.607a.356.356 0 0 0-.434 0l-.8.608-.802-.608a.356.356 0 0 0-.434 0l-.432.328v-5.81h.37c.203 0 .369-.174.369-.387a.378.378 0 0 0-.37-.386h-.37V5.795c0-2.175-.875-4.03-2.198-5.022h4.786zm-7.022 0c2.072 0 3.695 2.206 3.695 5.022 0 2.817-1.623 5.023-3.695 5.023-2.073 0-3.696-2.206-3.696-5.023C.74 2.98 2.362.773 4.435.773zm7.391 8.5c.204 0 .37.173.37.386a.378.378 0 0 1-.37.386h-1.109a.378.378 0 0 1-.37-.386c0-.213.166-.386.37-.386zm2.587 0c.204 0 .37.173.37.386a.378.378 0 0 1-.37.386h-1.109a.378.378 0 0 1-.37-.386c0-.213.166-.386.37-.386zM4.435 3.09c-.7 0-1.478 1.111-1.478 2.704 0 1.594.779 2.705 1.478 2.705s1.478-1.111 1.478-2.705c0-1.593-.779-2.704-1.478-2.704zm-.002.773c.19.021.74.72.74 1.931 0 1.207-.545 1.905-.738 1.932-.193-.027-.74-.725-.74-1.932 0-1.211.551-1.91.738-1.931z"/>
    </defs>
    <g fill="none" fill-rule="evenodd" transform="translate(16 16)">
        <mask id="b" fill="#fff">
            <use xlink:href="#a"/>
        </mask>
        <use fill="#5B5B5B" fill-rule="nonzero" xlink:href="#a"/>
        <g fill="#FFF" mask="url(#b)">
            <path d="M-16-16h48v48h-48z"/>
        </g>
    </g>
</svg>
